<?xml version="1.0" encoding="UTF-8"?>
<testsuite xmlns:xsi="http://www.w3.org/2001/XMLSchema-instance" xsi:noNamespaceSchemaLocation="https://maven.apache.org/surefire/maven-surefire-plugin/xsd/surefire-test-report-3.0.xsd" version="3.0" name="TestSuite" time="23.06" tests="25" errors="0" skipped="0" failures="0">
  <properties>
    <property name="sun.desktop" value="windows"/>
    <property name="awt.toolkit" value="sun.awt.windows.WToolkit"/>
    <property name="java.specification.version" value="11"/>
    <property name="sun.cpu.isalist" value="amd64"/>
    <property name="sun.jnu.encoding" value="Cp1252"/>
    <property name="java.class.path" value="C:\Users\Asus\eclipse-workspace\RestAssured\target\test-classes;C:\Users\Asus\eclipse-workspace\RestAssured\target\classes;C:\Users\Asus\.m2\repository\com\aventstack\extentreports\5.0.9\extentreports-5.0.9.jar;C:\Users\Asus\.m2\repository\io\reactivex\rxjava3\rxjava\3.0.4\rxjava-3.0.4.jar;C:\Users\Asus\.m2\repository\org\reactivestreams\reactive-streams\1.0.3\reactive-streams-1.0.3.jar;C:\Users\Asus\.m2\repository\org\freemarker\freemarker\2.3.30\freemarker-2.3.30.jar;C:\Users\Asus\.m2\repository\org\projectlombok\lombok\1.18.12\lombok-1.18.12.jar;C:\Users\Asus\.m2\repository\com\google\code\gson\gson\2.8.6\gson-2.8.6.jar;C:\Users\Asus\.m2\repository\log4j\log4j\1.2.17\log4j-1.2.17.jar;C:\Users\Asus\.m2\repository\io\rest-assured\rest-assured\4.5.1\rest-assured-4.5.1.jar;C:\Users\Asus\.m2\repository\org\codehaus\groovy\groovy\3.0.9\groovy-3.0.9.jar;C:\Users\Asus\.m2\repository\org\codehaus\groovy\groovy-xml\3.0.9\groovy-xml-3.0.9.jar;C:\Users\Asus\.m2\repository\org\apache\httpcomponents\httpclient\4.5.13\httpclient-4.5.13.jar;C:\Users\Asus\.m2\repository\org\apache\httpcomponents\httpcore\4.4.13\httpcore-4.4.13.jar;C:\Users\Asus\.m2\repository\commons-logging\commons-logging\1.2\commons-logging-1.2.jar;C:\Users\Asus\.m2\repository\org\apache\httpcomponents\httpmime\4.5.13\httpmime-4.5.13.jar;C:\Users\Asus\.m2\repository\org\hamcrest\hamcrest\2.1\hamcrest-2.1.jar;C:\Users\Asus\.m2\repository\org\ccil\cowan\tagsoup\tagsoup\1.2.1\tagsoup-1.2.1.jar;C:\Users\Asus\.m2\repository\io\rest-assured\json-path\4.5.1\json-path-4.5.1.jar;C:\Users\Asus\.m2\repository\org\codehaus\groovy\groovy-json\3.0.9\groovy-json-3.0.9.jar;C:\Users\Asus\.m2\repository\io\rest-assured\rest-assured-common\4.5.1\rest-assured-common-4.5.1.jar;C:\Users\Asus\.m2\repository\io\rest-assured\xml-path\4.5.1\xml-path-4.5.1.jar;C:\Users\Asus\.m2\repository\org\apache\commons\commons-lang3\3.11\commons-lang3-3.11.jar;C:\Users\Asus\.m2\repository\com\googlecode\json-simple\json-simple\1.1.1\json-simple-1.1.1.jar;C:\Users\Asus\.m2\repository\junit\junit\4.10\junit-4.10.jar;C:\Users\Asus\.m2\repository\org\hamcrest\hamcrest-core\1.1\hamcrest-core-1.1.jar;C:\Users\Asus\.m2\repository\org\apache\poi\poi\5.2.2\poi-5.2.2.jar;C:\Users\Asus\.m2\repository\commons-codec\commons-codec\1.15\commons-codec-1.15.jar;C:\Users\Asus\.m2\repository\org\apache\commons\commons-collections4\4.4\commons-collections4-4.4.jar;C:\Users\Asus\.m2\repository\org\apache\commons\commons-math3\3.6.1\commons-math3-3.6.1.jar;C:\Users\Asus\.m2\repository\commons-io\commons-io\2.11.0\commons-io-2.11.0.jar;C:\Users\Asus\.m2\repository\com\zaxxer\SparseBitSet\1.2\SparseBitSet-1.2.jar;C:\Users\Asus\.m2\repository\org\apache\logging\log4j\log4j-api\2.17.2\log4j-api-2.17.2.jar;C:\Users\Asus\.m2\repository\org\apache\poi\poi-ooxml\5.2.2\poi-ooxml-5.2.2.jar;C:\Users\Asus\.m2\repository\org\apache\poi\poi-ooxml-lite\5.2.2\poi-ooxml-lite-5.2.2.jar;C:\Users\Asus\.m2\repository\org\apache\xmlbeans\xmlbeans\5.0.3\xmlbeans-5.0.3.jar;C:\Users\Asus\.m2\repository\org\apache\commons\commons-compress\1.21\commons-compress-1.21.jar;C:\Users\Asus\.m2\repository\com\github\virtuald\curvesapi\1.07\curvesapi-1.07.jar;C:\Users\Asus\.m2\repository\org\testng\testng\7.4.0\testng-7.4.0.jar;C:\Users\Asus\.m2\repository\com\beust\jcommander\1.78\jcommander-1.78.jar;C:\Users\Asus\.m2\repository\org\webjars\jquery\3.5.1\jquery-3.5.1.jar;"/>
    <property name="java.vm.vendor" value="Oracle Corporation"/>
    <property name="sun.arch.data.model" value="64"/>
    <property name="user.variant" value=""/>
    <property name="java.vendor.url" value="https://openjdk.java.net/"/>
    <property name="user.timezone" value="Asia/Calcutta"/>
    <property name="java.vm.specification.version" value="11"/>
    <property name="os.name" value="Windows 10"/>
    <property name="sun.java.launcher" value="SUN_STANDARD"/>
    <property name="user.country" value="IN"/>
    <property name="sun.boot.library.path" value="C:\Program Files\Java\jdk-11.0.16.1\bin"/>
    <property name="sun.java.command" value="C:\Users\Asus\AppData\Local\Temp\surefire3901988118936069953\surefirebooter-20220918150354151_3.jar C:\Users\Asus\AppData\Local\Temp\surefire3901988118936069953 2022-09-18T15-03-53_221-jvmRun1 surefire-20220918150354151_1tmp surefire_0-20220918150354151_2tmp"/>
    <property name="jdk.debug" value="release"/>
    <property name="surefire.test.class.path" value="C:\Users\Asus\eclipse-workspace\RestAssured\target\test-classes;C:\Users\Asus\eclipse-workspace\RestAssured\target\classes;C:\Users\Asus\.m2\repository\com\aventstack\extentreports\5.0.9\extentreports-5.0.9.jar;C:\Users\Asus\.m2\repository\io\reactivex\rxjava3\rxjava\3.0.4\rxjava-3.0.4.jar;C:\Users\Asus\.m2\repository\org\reactivestreams\reactive-streams\1.0.3\reactive-streams-1.0.3.jar;C:\Users\Asus\.m2\repository\org\freemarker\freemarker\2.3.30\freemarker-2.3.30.jar;C:\Users\Asus\.m2\repository\org\projectlombok\lombok\1.18.12\lombok-1.18.12.jar;C:\Users\Asus\.m2\repository\com\google\code\gson\gson\2.8.6\gson-2.8.6.jar;C:\Users\Asus\.m2\repository\log4j\log4j\1.2.17\log4j-1.2.17.jar;C:\Users\Asus\.m2\repository\io\rest-assured\rest-assured\4.5.1\rest-assured-4.5.1.jar;C:\Users\Asus\.m2\repository\org\codehaus\groovy\groovy\3.0.9\groovy-3.0.9.jar;C:\Users\Asus\.m2\repository\org\codehaus\groovy\groovy-xml\3.0.9\groovy-xml-3.0.9.jar;C:\Users\Asus\.m2\repository\org\apache\httpcomponents\httpclient\4.5.13\httpclient-4.5.13.jar;C:\Users\Asus\.m2\repository\org\apache\httpcomponents\httpcore\4.4.13\httpcore-4.4.13.jar;C:\Users\Asus\.m2\repository\commons-logging\commons-logging\1.2\commons-logging-1.2.jar;C:\Users\Asus\.m2\repository\org\apache\httpcomponents\httpmime\4.5.13\httpmime-4.5.13.jar;C:\Users\Asus\.m2\repository\org\hamcrest\hamcrest\2.1\hamcrest-2.1.jar;C:\Users\Asus\.m2\repository\org\ccil\cowan\tagsoup\tagsoup\1.2.1\tagsoup-1.2.1.jar;C:\Users\Asus\.m2\repository\io\rest-assured\json-path\4.5.1\json-path-4.5.1.jar;C:\Users\Asus\.m2\repository\org\codehaus\groovy\groovy-json\3.0.9\groovy-json-3.0.9.jar;C:\Users\Asus\.m2\repository\io\rest-assured\rest-assured-common\4.5.1\rest-assured-common-4.5.1.jar;C:\Users\Asus\.m2\repository\io\rest-assured\xml-path\4.5.1\xml-path-4.5.1.jar;C:\Users\Asus\.m2\repository\org\apache\commons\commons-lang3\3.11\commons-lang3-3.11.jar;C:\Users\Asus\.m2\repository\com\googlecode\json-simple\json-simple\1.1.1\json-simple-1.1.1.jar;C:\Users\Asus\.m2\repository\junit\junit\4.10\junit-4.10.jar;C:\Users\Asus\.m2\repository\org\hamcrest\hamcrest-core\1.1\hamcrest-core-1.1.jar;C:\Users\Asus\.m2\repository\org\apache\poi\poi\5.2.2\poi-5.2.2.jar;C:\Users\Asus\.m2\repository\commons-codec\commons-codec\1.15\commons-codec-1.15.jar;C:\Users\Asus\.m2\repository\org\apache\commons\commons-collections4\4.4\commons-collections4-4.4.jar;C:\Users\Asus\.m2\repository\org\apache\commons\commons-math3\3.6.1\commons-math3-3.6.1.jar;C:\Users\Asus\.m2\repository\commons-io\commons-io\2.11.0\commons-io-2.11.0.jar;C:\Users\Asus\.m2\repository\com\zaxxer\SparseBitSet\1.2\SparseBitSet-1.2.jar;C:\Users\Asus\.m2\repository\org\apache\logging\log4j\log4j-api\2.17.2\log4j-api-2.17.2.jar;C:\Users\Asus\.m2\repository\org\apache\poi\poi-ooxml\5.2.2\poi-ooxml-5.2.2.jar;C:\Users\Asus\.m2\repository\org\apache\poi\poi-ooxml-lite\5.2.2\poi-ooxml-lite-5.2.2.jar;C:\Users\Asus\.m2\repository\org\apache\xmlbeans\xmlbeans\5.0.3\xmlbeans-5.0.3.jar;C:\Users\Asus\.m2\repository\org\apache\commons\commons-compress\1.21\commons-compress-1.21.jar;C:\Users\Asus\.m2\repository\com\github\virtuald\curvesapi\1.07\curvesapi-1.07.jar;C:\Users\Asus\.m2\repository\org\testng\testng\7.4.0\testng-7.4.0.jar;C:\Users\Asus\.m2\repository\com\beust\jcommander\1.78\jcommander-1.78.jar;C:\Users\Asus\.m2\repository\org\webjars\jquery\3.5.1\jquery-3.5.1.jar;"/>
    <property name="sun.cpu.endian" value="little"/>
    <property name="user.home" value="C:\Users\Asus"/>
    <property name="user.language" value="en"/>
    <property name="java.specification.vendor" value="Oracle Corporation"/>
    <property name="java.version.date" value="2022-08-18"/>
    <property name="java.home" value="C:\Program Files\Java\jdk-11.0.16.1"/>
    <property name="file.separator" value="\"/>
    <property name="basedir" value="C:\Users\Asus\eclipse-workspace\RestAssured"/>
    <property name="java.vm.compressedOopsMode" value="32-bit"/>
    <property name="line.separator" value="&#10;"/>
    <property name="java.specification.name" value="Java Platform API Specification"/>
    <property name="java.vm.specification.vendor" value="Oracle Corporation"/>
    <property name="java.awt.graphicsenv" value="sun.awt.Win32GraphicsEnvironment"/>
    <property name="surefire.real.class.path" value="C:\Users\Asus\AppData\Local\Temp\surefire3901988118936069953\surefirebooter-20220918150354151_3.jar"/>
    <property name="user.script" value=""/>
    <property name="sun.management.compiler" value="HotSpot 64-Bit Tiered Compilers"/>
    <property name="java.runtime.version" value="11.0.16.1+1-LTS-1"/>
    <property name="user.name" value="Asus"/>
    <property name="path.separator" value=";"/>
    <property name="os.version" value="10.0"/>
    <property name="java.runtime.name" value="Java(TM) SE Runtime Environment"/>
    <property name="file.encoding" value="Cp1252"/>
    <property name="java.vm.name" value="Java HotSpot(TM) 64-Bit Server VM"/>
    <property name="java.vendor.version" value="18.9"/>
    <property name="localRepository" value="C:\Users\Asus\.m2\repository"/>
    <property name="java.vendor.url.bug" value="https://bugreport.java.com/bugreport/"/>
    <property name="java.io.tmpdir" value="C:\Users\Asus\AppData\Local\Temp\"/>
    <property name="java.version" value="11.0.16.1"/>
    <property name="user.dir" value="C:\Users\Asus\eclipse-workspace\RestAssured"/>
    <property name="os.arch" value="amd64"/>
    <property name="java.vm.specification.name" value="Java Virtual Machine Specification"/>
    <property name="java.awt.printerjob" value="sun.awt.windows.WPrinterJob"/>
    <property name="sun.os.patch.level" value=""/>
    <property name="java.library.path" value="C:\Program Files\Java\jdk-11.0.16.1\bin;C:\Windows\Sun\Java\bin;C:\Windows\system32;C:\Windows;C:\apache-maven-3.8.6\bin;C:\Windows\system32;C:\Windows;C:\Windows\System32\Wbem;C:\Windows\System32\WindowsPowerShell\v1.0\;C:\Program Files\Java\jdk-17.0.4.1\bin;C:\Program Files\Java\jdk-11.0.16.1;C:\Program Files\Java\jdk-11.0.16.1\lib;C:\Program Files\Java\jdk-11.0.16.1\bin;C:\Program Files\Java\jdk-11.0.16.1\bin;C:\Users\Asus\AppData\Local\Microsoft\WindowsApps;;."/>
    <property name="java.vendor" value="Oracle Corporation"/>
    <property name="java.vm.info" value="mixed mode"/>
    <property name="java.vm.version" value="11.0.16.1+1-LTS-1"/>
    <property name="sun.io.unicode.encoding" value="UnicodeLittle"/>
    <property name="java.class.version" value="55.0"/>
  </properties>
  <testcase name="checkContentType" classname="com.employee.Testcase.TC003_POST_Single_EmployeeDetail" time="0.03">
    <system-out><![CDATA[09-18-2022 15:03:56 TC003_POST_Single_EmployeeDetail.java INFO  [main] EmployeeRestAPI 23 - *****Started TC003_POST_Single_EmployeeDetail*****
09-18-2022 15:04:04 TC003_POST_Single_EmployeeDetail.java INFO  [main] EmployeeRestAPI 75 - **********Checking Content Type**********
09-18-2022 15:04:04 TC003_POST_Single_EmployeeDetail.java INFO  [main] EmployeeRestAPI 77 - Content Type is==> :application/json; charset=utf-8
]]></system-out>
  </testcase>
  <testcase name="checkServerType" classname="com.employee.Testcase.TC003_POST_Single_EmployeeDetail" time="0.006">
    <system-out><![CDATA[09-18-2022 15:04:04 TC003_POST_Single_EmployeeDetail.java INFO  [main] EmployeeRestAPI 84 - **********Checking Server Type**********
09-18-2022 15:04:04 TC003_POST_Single_EmployeeDetail.java INFO  [main] EmployeeRestAPI 86 - Server Type is==>:cloudflare
]]></system-out>
  </testcase>
  <testcase name="checkStatusCode" classname="com.employee.Testcase.TC003_POST_Single_EmployeeDetail" time="0.004">
    <system-out><![CDATA[09-18-2022 15:04:04 TC003_POST_Single_EmployeeDetail.java INFO  [main] EmployeeRestAPI 53 - *****Checking Status code*****
09-18-2022 15:04:04 TC003_POST_Single_EmployeeDetail.java INFO  [main] EmployeeRestAPI 55 - Status code is==>201
]]></system-out>
  </testcase>
  <testcase name="getResponseTime" classname="com.employee.Testcase.TC003_POST_Single_EmployeeDetail" time="0.003">
    <system-out><![CDATA[09-18-2022 15:04:04 TC003_POST_Single_EmployeeDetail.java INFO  [main] EmployeeRestAPI 62 - **********Checking Response Time**********
09-18-2022 15:04:04 TC003_POST_Single_EmployeeDetail.java INFO  [main] EmployeeRestAPI 64 - Response Time is==>:1589
]]></system-out>
  </testcase>
  <testcase name="getresponseBody" classname="com.employee.Testcase.TC003_POST_Single_EmployeeDetail" time="0.033">
    <system-out><![CDATA[09-18-2022 15:04:04 TC003_POST_Single_EmployeeDetail.java INFO  [main] EmployeeRestAPI 42 - *****Checking Response Body*****
09-18-2022 15:04:04 TC003_POST_Single_EmployeeDetail.java INFO  [main] EmployeeRestAPI 44 - Response Body is==>{"last_name":"Maheshwarix","first_name":"Uditn","email":"udits@gmail.com","id":"470","createdAt":"2022-09-18T09:33:59.731Z"}
]]></system-out>
  </testcase>
  <testcase name="checkContentType" classname="com.employee.Testcase.TC001_GET_All_EmployeeDetail" time="0.009">
    <system-out><![CDATA[09-18-2022 15:04:04 TC003_POST_Single_EmployeeDetail.java INFO  [main] EmployeeRestAPI 93 - *****Finished TC003_POST_Single_EmployeeDetail*****
09-18-2022 15:04:04 TC001_GET_All_EmployeeDetail.java INFO  [main] EmployeeRestAPI 18 - *************Started TC001_GET_All_EmployeeDetail****************
09-18-2022 15:04:05 TC001_GET_All_EmployeeDetail.java INFO  [main] EmployeeRestAPI 62 - **********Checking Content Type**********
09-18-2022 15:04:05 TC001_GET_All_EmployeeDetail.java INFO  [main] EmployeeRestAPI 64 - Content Type is==> :application/json; charset=utf-8
]]></system-out>
  </testcase>
  <testcase name="checkResponseBody" classname="com.employee.Testcase.TC001_GET_All_EmployeeDetail" time="0.013">
    <system-out><![CDATA[09-18-2022 15:04:05 TC001_GET_All_EmployeeDetail.java INFO  [main] EmployeeRestAPI 30 - **********Check Response Body**********
09-18-2022 15:04:05 TC001_GET_All_EmployeeDetail.java INFO  [main] EmployeeRestAPI 33 - Response Body is ==>{"page":2,"per_page":6,"total":12,"total_pages":2,"data":[{"id":7,"email":"michael.lawson@reqres.in","first_name":"Michael","last_name":"Lawson","avatar":"https://reqres.in/img/faces/7-image.jpg"},{"id":8,"email":"lindsay.ferguson@reqres.in","first_name":"Lindsay","last_name":"Ferguson","avatar":"https://reqres.in/img/faces/8-image.jpg"},{"id":9,"email":"tobias.funke@reqres.in","first_name":"Tobias","last_name":"Funke","avatar":"https://reqres.in/img/faces/9-image.jpg"},{"id":10,"email":"byron.fields@reqres.in","first_name":"Byron","last_name":"Fields","avatar":"https://reqres.in/img/faces/10-image.jpg"},{"id":11,"email":"george.edwards@reqres.in","first_name":"George","last_name":"Edwards","avatar":"https://reqres.in/img/faces/11-image.jpg"},{"id":12,"email":"rachel.howell@reqres.in","first_name":"Rachel","last_name":"Howell","avatar":"https://reqres.in/img/faces/12-image.jpg"}],"support":{"url":"https://reqres.in/#support-heading","text":"To keep ReqRes free, contributions towards server costs are appreciated!"}}
]]></system-out>
  </testcase>
  <testcase name="checkServerType" classname="com.employee.Testcase.TC001_GET_All_EmployeeDetail" time="0.027">
    <system-out><![CDATA[09-18-2022 15:04:05 TC001_GET_All_EmployeeDetail.java INFO  [main] EmployeeRestAPI 71 - **********Checking Server Type**********
09-18-2022 15:04:05 TC001_GET_All_EmployeeDetail.java INFO  [main] EmployeeRestAPI 73 - Server Type is==>:cloudflare
]]></system-out>
  </testcase>
  <testcase name="checkStatuscode" classname="com.employee.Testcase.TC001_GET_All_EmployeeDetail" time="0.03">
    <system-out><![CDATA[09-18-2022 15:04:05 TC001_GET_All_EmployeeDetail.java INFO  [main] EmployeeRestAPI 40 - **********Check Status Code**********
09-18-2022 15:04:05 TC001_GET_All_EmployeeDetail.java INFO  [main] EmployeeRestAPI 42 - Resonse code is ==>200
]]></system-out>
  </testcase>
  <testcase name="getResponseTime" classname="com.employee.Testcase.TC001_GET_All_EmployeeDetail" time="0.006">
    <system-out><![CDATA[09-18-2022 15:04:05 TC001_GET_All_EmployeeDetail.java INFO  [main] EmployeeRestAPI 49 - **********Checking Response Time**********
09-18-2022 15:04:05 TC001_GET_All_EmployeeDetail.java INFO  [main] EmployeeRestAPI 51 - Response Time is==>:186
]]></system-out>
  </testcase>
  <testcase name="checkContentType" classname="com.employee.Testcase.TC004_PUT_Existing_EmployeeDetail" time="0.011">
    <system-out><![CDATA[09-18-2022 15:04:05 TC001_GET_All_EmployeeDetail.java INFO  [main] EmployeeRestAPI 80 - ********** Finished TC001_GET_All_EmployeeDetail**********
09-18-2022 15:04:05 TC004_PUT_Existing_EmployeeDetail.java INFO  [main] EmployeeRestAPI 22 - *****Started TC004_PUT_Existing_EmployeeDetail*****
09-18-2022 15:04:10 TC004_PUT_Existing_EmployeeDetail.java INFO  [main] EmployeeRestAPI 72 - **********Checking Content Type**********
09-18-2022 15:04:10 TC004_PUT_Existing_EmployeeDetail.java INFO  [main] EmployeeRestAPI 74 - Content Type is==> :application/json; charset=utf-8
]]></system-out>
  </testcase>
  <testcase name="checkServerType" classname="com.employee.Testcase.TC004_PUT_Existing_EmployeeDetail" time="0.017">
    <system-out><![CDATA[09-18-2022 15:04:10 TC004_PUT_Existing_EmployeeDetail.java INFO  [main] EmployeeRestAPI 81 - **********Checking Server Type**********
09-18-2022 15:04:10 TC004_PUT_Existing_EmployeeDetail.java INFO  [main] EmployeeRestAPI 83 - Server Type is==>:cloudflare
]]></system-out>
  </testcase>
  <testcase name="checkStatusCode" classname="com.employee.Testcase.TC004_PUT_Existing_EmployeeDetail" time="0.013">
    <system-out><![CDATA[09-18-2022 15:04:10 TC004_PUT_Existing_EmployeeDetail.java INFO  [main] EmployeeRestAPI 50 - *****Checking Status code*****
09-18-2022 15:04:10 TC004_PUT_Existing_EmployeeDetail.java INFO  [main] EmployeeRestAPI 52 - Status code is==>200
]]></system-out>
  </testcase>
  <testcase name="getResponseTime" classname="com.employee.Testcase.TC004_PUT_Existing_EmployeeDetail" time="0.006">
    <system-out><![CDATA[09-18-2022 15:04:10 TC004_PUT_Existing_EmployeeDetail.java INFO  [main] EmployeeRestAPI 59 - **********Checking Response Time**********
09-18-2022 15:04:10 TC004_PUT_Existing_EmployeeDetail.java INFO  [main] EmployeeRestAPI 61 - Response Time is==>:475
]]></system-out>
  </testcase>
  <testcase name="getresponseBody" classname="com.employee.Testcase.TC004_PUT_Existing_EmployeeDetail" time="0.007">
    <system-out><![CDATA[09-18-2022 15:04:10 TC004_PUT_Existing_EmployeeDetail.java INFO  [main] EmployeeRestAPI 39 - *****Checking Response Body*****
09-18-2022 15:04:10 TC004_PUT_Existing_EmployeeDetail.java INFO  [main] EmployeeRestAPI 41 - Response Body is==>{"name":"UditB","job":"Software EngineerH","updatedAt":"2022-09-18T09:34:05.673Z"}
]]></system-out>
  </testcase>
  <testcase name="checkContentType" classname="com.employee.Testcase.TC005_DELETE_EmployeeDetail" time="0.009">
    <system-out><![CDATA[09-18-2022 15:04:10 TC004_PUT_Existing_EmployeeDetail.java INFO  [main] EmployeeRestAPI 90 - *****Finished TC004_PUT_Existing_EmployeeDetaill*****
09-18-2022 15:04:10 TC005_DELETE_EmployeeDetail.java INFO  [main] EmployeeRestAPI 19 - *****Started TC005_DELETE_EmployeeDetail*****
09-18-2022 15:04:16 TC005_DELETE_EmployeeDetail.java INFO  [main] EmployeeRestAPI 71 - **********Checking Content Type**********
09-18-2022 15:04:16 TC005_DELETE_EmployeeDetail.java INFO  [main] EmployeeRestAPI 73 - Content Type is==> :null
]]></system-out>
  </testcase>
  <testcase name="checkServerType" classname="com.employee.Testcase.TC005_DELETE_EmployeeDetail" time="0.007">
    <system-out><![CDATA[09-18-2022 15:04:16 TC005_DELETE_EmployeeDetail.java INFO  [main] EmployeeRestAPI 80 - **********Checking Server Type**********
09-18-2022 15:04:16 TC005_DELETE_EmployeeDetail.java INFO  [main] EmployeeRestAPI 82 - Server Type is==>:cloudflare
]]></system-out>
  </testcase>
  <testcase name="checkStatusCode" classname="com.employee.Testcase.TC005_DELETE_EmployeeDetail" time="0.014">
    <system-out><![CDATA[09-18-2022 15:04:16 TC005_DELETE_EmployeeDetail.java INFO  [main] EmployeeRestAPI 49 - *****Checking Status code*****
09-18-2022 15:04:16 TC005_DELETE_EmployeeDetail.java INFO  [main] EmployeeRestAPI 51 - Status code is==>204
]]></system-out>
  </testcase>
  <testcase name="getResponseTime" classname="com.employee.Testcase.TC005_DELETE_EmployeeDetail" time="0.008">
    <system-out><![CDATA[09-18-2022 15:04:16 TC005_DELETE_EmployeeDetail.java INFO  [main] EmployeeRestAPI 58 - **********Checking Response Time**********
09-18-2022 15:04:16 TC005_DELETE_EmployeeDetail.java INFO  [main] EmployeeRestAPI 60 - Response Time is==>:403
]]></system-out>
  </testcase>
  <testcase name="getresponseBody" classname="com.employee.Testcase.TC005_DELETE_EmployeeDetail" time="0.003">
    <system-out><![CDATA[09-18-2022 15:04:16 TC005_DELETE_EmployeeDetail.java INFO  [main] EmployeeRestAPI 39 - *****Checking Response Body*****
09-18-2022 15:04:16 TC005_DELETE_EmployeeDetail.java INFO  [main] EmployeeRestAPI 41 - Response Body is==>
]]></system-out>
  </testcase>
  <testcase name="checkContentType" classname="com.employee.Testcase.TC002_GET_SIngle_EmployeeDetail" time="0.008">
    <system-out><![CDATA[09-18-2022 15:04:16 TC005_DELETE_EmployeeDetail.java INFO  [main] EmployeeRestAPI 89 - *****Finished TC005_DELETE_EmployeeDetai*****
09-18-2022 15:04:16 TC002_GET_SIngle_EmployeeDetail.java INFO  [main] EmployeeRestAPI 18 - *****Started TC002_GET_SIngle_EmployeeDetail*****
09-18-2022 15:04:16 TC002_GET_SIngle_EmployeeDetail.java INFO  [main] EmployeeRestAPI 58 - **********Checking Content Type**********
09-18-2022 15:04:16 TC002_GET_SIngle_EmployeeDetail.java INFO  [main] EmployeeRestAPI 60 - Content Type is==> :application/json; charset=utf-8
]]></system-out>
  </testcase>
  <testcase name="checkServerType" classname="com.employee.Testcase.TC002_GET_SIngle_EmployeeDetail" time="0.025">
    <system-out><![CDATA[09-18-2022 15:04:16 TC002_GET_SIngle_EmployeeDetail.java INFO  [main] EmployeeRestAPI 67 - **********Checking Server Type**********
09-18-2022 15:04:16 TC002_GET_SIngle_EmployeeDetail.java INFO  [main] EmployeeRestAPI 69 - Server Type is==>:cloudflare
]]></system-out>
  </testcase>
  <testcase name="checkStatuscode" classname="com.employee.Testcase.TC002_GET_SIngle_EmployeeDetail" time="0.019">
    <system-out><![CDATA[09-18-2022 15:04:16 TC002_GET_SIngle_EmployeeDetail.java INFO  [main] EmployeeRestAPI 36 - **********Check Status Code**********
09-18-2022 15:04:16 TC002_GET_SIngle_EmployeeDetail.java INFO  [main] EmployeeRestAPI 38 - Resonse code is ==>200
]]></system-out>
  </testcase>
  <testcase name="getResponseBody" classname="com.employee.Testcase.TC002_GET_SIngle_EmployeeDetail" time="0.014">
    <system-out><![CDATA[09-18-2022 15:04:16 TC002_GET_SIngle_EmployeeDetail.java INFO  [main] EmployeeRestAPI 27 - *****Checking Response Body*****
09-18-2022 15:04:16 TC002_GET_SIngle_EmployeeDetail.java INFO  [main] EmployeeRestAPI 29 - Response Body is==>{"data":{"id":2,"email":"janet.weaver@reqres.in","first_name":"Janet","last_name":"Weaver","avatar":"https://reqres.in/img/faces/2-image.jpg"},"support":{"url":"https://reqres.in/#support-heading","text":"To keep ReqRes free, contributions towards server costs are appreciated!"}}
]]></system-out>
  </testcase>
  <testcase name="getResponseTime" classname="com.employee.Testcase.TC002_GET_SIngle_EmployeeDetail" time="0.093">
    <system-out><![CDATA[09-18-2022 15:04:16 TC002_GET_SIngle_EmployeeDetail.java INFO  [main] EmployeeRestAPI 45 - **********Checking Response Time**********
09-18-2022 15:04:16 TC002_GET_SIngle_EmployeeDetail.java INFO  [main] EmployeeRestAPI 47 - Response Time is==>:383
]]></system-out>
  </testcase>
</testsuite>